commis_dist,district,commissioner_name,office1,office2,phone1,phone2,email
7th,7,Alma E. Anaya,"118 N. Clark St., Room 567 ,Chicago, IL 60602, United States","4374 S. Archer Ave. ,Chicago, IL 60632, United States",(312) 603-5443,,alma.anaya@cookcountyil.gov
8th,8,Luis Arroyo Jr.,"118 N. Clark St., Room 567, Chicago, IL 60602, United States","5003 W. Fullerton, Chicago, IL 60639, United States",(312) 603-8530,(312) 603-8530,luis.arroyojr@cookcountyil.gov
14th,14,Scott R. Britton,"118 N. Clark St., Room 567, Chicago, IL 60602, United States","1812 Waukegan Rd., Suite C, Glenview, IL 60025, United States",(312) 603-4932,(847) 729-9300,Scott.Britton@cookcountyil.gov
11th,11,John P. Daley,"118 N. Clark St., Chicago, IL 60602, United States",,(312) 603-4400,,john.daley@cookcountyil.gov
2nd,2,Dennis Deer,"118 N. Clark St., Chicago, IL 60602, United States","3600 West Ogden Ave, Chicago, IL 60623, United States",(312) 603-3019,(773) 722-0140,Dennis.Deer@cookcountyil.gov
12th,12,Bridget Degnen,"118 N. Clark St., Room 567, Chicago, IL 60602, United States","4253 N. Milwaukee Ave., Chicago, IL 60641, United States",(312) 603-6380,(773) 283-7873,bridget.degnen@cookcountyil.gov
10th,10,Bridget Gainer,"118 N. Clark St., Room 567, Chicago, IL 60602, United States","5533 N. Broadway Ave., Chicago, IL 60640, United States",(312) 603-4210,(773) 561-1010,district10@cookcountyil.gov
1st,1,Brandon Johnson,"118 N. Clark St., Room 567, Chicago, IL 60602, United States","6614 W. North Ave, Chicago, IL 60707, United States",(312) 603-4566,,brandon.johnson@cookcountyil.gov
3rd,3,Bill Lowry,"118 N. Clark St., Room 567, Chicago, IL 60602, United States",,(312) 603-6391,,bill.lowry@cookcountyil.gov
6th,6,Donna Miller,"118 N. Clark St., Room 567, Chicago, IL 60602, United States","15440 S. Central Ave., Oak Forest, IL 60452, United States",(312) 603-4216,,donna.miller@cookcountyil.gov
4th,4,Stanley Moore,"118 N.Clark St., Room 567, Chicago, IL 60602, United States","8658 S. Cottage Grove, Suite 404, Chicago, IL 60619, United States",(312) 603-2065,(773) 783-2412,stanley.moore2@cookcountyil.gov
17th,17,Sean M. Morrison,"118 N. Clark St., Room 567, Chicago, IL 60602, United States","15040 Ravinia Avenue, Suite 44, Orland Park, IL 60462, United States",(312) 603-4215,(708) 349-1336,sean.morrison@cookcountyil.gov
15th,15,Kevin B. Morrison,"118 N. Clark St., Room 567, Chicago, IL 60602, United States","1325 Wiley Rd., Suite 141, Schaumburg, IL 60173, United States",(312) 603-6388,(847) 519-7674,kevin.morrison@cookcountyil.gov
9th,9,Peter N. Silvestri,"118 N. Clark St., Room 567, Chicago, IL 60602, United States","5515 N. East River Road, Chicago, IL 60656, United States",(312) 603-4393,(773) 444-0346,cookcty9@aol.com
5th,5,Deborah Sims,"118 N. Clark St., Room 567, Chicago, IL 60602, United States","2515 Veterans Drive, Posen, IL 60469, United States",(312) 603-6381,(708) 371-4251,deborah.sims@cookcountyil.gov
13th,13,Larry Suffredin,"118 N. Clark St., Room 567, Chicago, IL 60602, United States","820 Davis St., Suite 104, Evanston, IL 60201, United States",(312) 603-6383,(847) 864-1209,lsuffredin@aol.com
16th,16,Jeffrey R. Tobolski,"118 N. Clark St., Room, Chicago, IL 60602, United States","521 South LaGrange Road, LaGrange, IL 60525, United States",(312) 603-4735,(708) 352-2301,jeffrey.tobolski@cookcountyil.gov
