township_name,township_code,triad,tri_name
Hyde Park,70,1,City
Jefferson,71,1,City
Lake,72,1,City
Lake View,73,1,City
North Chicago,74,1,City
Rogers Park,75,1,City
South Chicago,76,1,City
West Chicago,77,1,City
Barrington,10,2,North
Elk Grove,16,2,North
Evanston,17,2,North
Hanover,18,2,North
Leyden,20,2,North
Maine,22,2,North
New Trier,23,2,North
Niles,24,2,North
Northfield,25,2,North
Norwood Park,26,2,North
Palatine,29,2,North
Schaumburg,35,2,North
Berwyn,11,3,South
Bloom,12,3,South
Bremen,13,3,South
Calumet,14,3,South
Cicero,15,3,South
Lemont,19,3,South
Lyons,21,3,South
Oak Park,27,3,South
Orland,28,3,South
Palos,30,3,South
Proviso,31,3,South
Rich,32,3,South
River Forest,33,3,South
Riverside,34,3,South
Stickney,36,3,South
Thornton,37,3,South
Wheeling,38,2,North
Worth,39,3,South
